Lab1/Part1/simulation/qsim/lab1part1.msim.vcd
$comment
	File created using the following command:
		vcd file lab1part1.msim.vcd -direction
$end
$date
	Fri Jan 12 22:42:14 2024
$end
$version
	ModelSim Version 10.5b
$end
$timescale
	1ps
$end

$scope module four_bit_counter_vlg_vec_tst $end
$var reg 1 ! clk $end
$var reg 1 " enable $end
$var reg 1 # reset $end
$var wire 1 $ result [3] $end
$var wire 1 % result [2] $end
$var wire 1 & result [1] $end
$var wire 1 ' result [0] $end

$scope module i1 $end
$var wire 1 ( gnd $end
$var wire 1 ) vcc $end
$var wire 1 * unknown $end
$var tri1 1 + devclrn $end
$var tri1 1 , devpor $end
$var tri1 1 - devoe $end
$var wire 1 . ~QUARTUS_CREATED_GND~I_combout $end
$var wire 1 / clk~input_o $end
$var wire 1 0 clk~inputCLKENA0_outclk $end
$var wire 1 1 reset~input_o $end
$var wire 1 2 result~0_combout $end
$var wire 1 3 enable~input_o $end
$var wire 1 4 result[0]~1_combout $end
$var wire 1 5 result[0]~reg0_q $end
$var wire 1 6 result~2_combout $end
$var wire 1 7 result[1]~reg0_q $end
$var wire 1 8 result~3_combout $end
$var wire 1 9 result[2]~reg0_q $end
$var wire 1 : result~4_combout $end
$var wire 1 ; result[3]~reg0_q $end
$upscope $end
$upscope $end
$enddefinitions $end
#0
$dumpvars
0!
1"
0#
0'
0&
0%
0$
0(
1)
x*
1+
1,
1-
0.
0/
00
01
12
13
14
05
06
07
08
09
0:
0;
$end
#20000
1!
1/
10
15
1'
16
02
#40000
0!
0/
00
#60000
1!
1/
10
17
05
0'
1&
12
#80000
0!
0/
00
#100000
1!
1/
10
15
1'
18
06
02
#120000
0!
0/
00
#140000
1!
1/
10
19
07
05
0'
0&
1%
12
#160000
0!
0/
00
#180000
1!
1/
10
15
1'
16
02
#200000
0!
0/
00
#220000
1!
1/
10
17
05
0'
1&
12
#240000
0!
0/
00
#260000
1!
1/
10
15
1'
1:
08
06
02
#280000
0!
0/
00
#300000
1!
1/
10
1;
09
07
05
0'
0&
0%
1$
12
#320000
0!
0/
00
#340000
1!
1/
10
15
1'
16
02
#360000
0!
0/
00
#380000
1!
1/
10
17
05
0'
1&
12
#400000
0!
0/
00
#420000
1!
1/
10
15
1'
18
06
02
#440000
0!
0/
00
#460000
1#
1!
11
1/
10
0:
08
19
07
05
0'
0&
1%
#480000
0!
0/
00
#500000
1!
1/
10
0;
09
0%
0$
#520000
0#
0!
01
0/
00
12
#540000
1!
1/
10
15
1'
16
02
#560000
0!
0/
00
#580000
1!
1/
10
17
05
0'
1&
12
#600000
0!
0/
00
#610000
0"
03
04
#620000
1!
1/
10
#640000
0!
0/
00
#660000
1!
1/
10
#680000
0!
0/
00
#700000
1!
1/
10
#720000
0!
0/
00
#740000
1!
1/
10
#760000
0!
0/
00
#780000
1!
1/
10
#800000
0!
0/
00
#820000
1!
1/
10
#840000
0!
0/
00
#860000
1!
1/
10
#880000
0!
0/
00
#900000
1!
1/
10
#920000
0!
0/
00
#940000
1!
1/
10
#960000
0!
0/
00
#980000
1!
1/
10
